<svg xmlns="http://www.w3.org/2000/svg" xmlns:xlink="http://www.w3.org/1999/xlink" width="1920" height="1080" viewBox="0 0 1920 1080">
  <defs>
    <linearGradient id="linear-gradient" x1="0.732" y1="0.515" x2="-0.107" y2="0.547" gradientUnits="objectBoundingBox">
      <stop offset="0" stop-color="#7af7c2"/>
      <stop offset="1" stop-color="#18aeb4"/>
    </linearGradient>
    <linearGradient id="linear-gradient-2" x1="0.268" y1="0.485" x2="1.107" y2="0.453" gradientUnits="objectBoundingBox">
      <stop offset="0" stop-color="#21b9a1"/>
      <stop offset="1" stop-color="#60c8cc"/>
    </linearGradient>
    <clipPath id="clip-Web_1920_1">
      <rect width="1920" height="1080"/>
    </clipPath>
  </defs>
  <g id="Web_1920_1" data-name="Web 1920 – 1" clip-path="url(#clip-Web_1920_1)">
    <rect width="1920" height="1080" fill="#eaeaea"/>
    <g id="Group_1" data-name="Group 1">
      <path id="Path_1" data-name="Path 1" d="M227.027-28.522c129.9,0,216.76,107.933,182.969,219.5S154.443,463.006,202.081,675.048s310.251,342,491.982,377.853-712.121,0-712.121,0V-28.522Z" transform="translate(-73 27.099)" opacity="0.917" fill="url(#linear-gradient)"/>
      <path id="Path_4" data-name="Path 4" d="M535.566,1195.945c-141.572,0-236.234-117.63-199.407-239.222s278.513-296.466,226.6-527.558S224.629,56.435,26.571,17.365s776.1,0,776.1,0V1195.945Z" transform="matrix(0.951, 0.309, -0.309, 0.951, 1540.369, -177.073)" opacity="0.917" fill="url(#linear-gradient-2)"/>
      <path id="Path_2" data-name="Path 2" d="M278.2-28.522c157.024,0,262.019,116.415,221.172,236.753S190.46,501.635,248.045,730.342s375.029,368.882,594.705,407.548-860.809,0-860.809,0V-28.522Z" transform="translate(-143.837 -16.022)" fill="none" stroke="#000" stroke-width="5" opacity="0.995"/>
      <path id="Path_5" data-name="Path 5" d="M647.389,1289.935c-171.131,0-285.559-126.874-241.042-258.023S743.012,712.147,680.254,462.893,271.531,60.87,32.119,18.729s938.146,0,938.146,0V1289.935Z" transform="matrix(0.951, 0.309, -0.309, 0.951, 1484.923, -249.701)" fill="none" stroke="#000" stroke-width="5" opacity="0.995"/>
      <path id="Path_3" data-name="Path 3" d="M289.724-28.522c163.132,0,272.211,109.132,229.775,221.941S198.571,468.468,258.4,682.867s389.618,345.8,617.839,382.052-894.293,0-894.293,0V-28.522Z" transform="translate(-143.837 14.905)" fill="none" stroke="#000" stroke-width="5"/>
      <path id="Path_6" data-name="Path 6" d="M672.572,1209.235c-177.788,0-296.667-118.937-250.419-241.88s349.761-299.76,284.562-533.421S282.093,57.062,33.368,17.558s974.639,0,974.639,0V1209.235Z" transform="matrix(0.951, 0.309, -0.309, 0.951, 1418.505, -216.669)" fill="none" stroke="#000" stroke-width="5" opacity="0.995"/>
    </g>
  </g>
</svg>
